^E:\PROJECTS\HOMEWPRK_16\HOMEWPRK_16\DEBUG\HOMEWPRK_16.OBJ
E:\PROJECTS\HOMEWPRK_16\DEBUG\HOMEWPRK_16.EXE
E:\PROJECTS\HOMEWPRK_16\DEBUG\HOMEWPRK_16.ILK
E:\PROJECTS\HOMEWPRK_16\DEBUG\HOMEWPRK_16.PDB
